Scanning dependencies of target nvram
[ 18%] Building C object CMakeFiles/nvram.dir/home/n2/5Gnr/openairinterface5g/openair3/NAS/TOOLS/conf_emm.c.o
[ 18%] Building C object CMakeFiles/nvram.dir/home/n2/5Gnr/openairinterface5g/openair3/NAS/TOOLS/nvram.c.o
[ 18%] Building C object CMakeFiles/nvram.dir/home/n2/5Gnr/openairinterface5g/openair3/NAS/TOOLS/conf_user_data.c.o
[ 25%] Building C object CMakeFiles/nvram.dir/home/n2/5Gnr/openairinterface5g/openair3/NAS/TOOLS/conf_network.c.o
[ 31%] Building C object CMakeFiles/nvram.dir/home/n2/5Gnr/openairinterface5g/openair3/NAS/TOOLS/conf_usim.c.o
[ 37%] Building C object CMakeFiles/nvram.dir/home/n2/5Gnr/openairinterface5g/openair3/NAS/TOOLS/conf_parser.c.o
[ 43%] Building C object CMakeFiles/nvram.dir/home/n2/5Gnr/openairinterface5g/openair3/NAS/TOOLS/conf_user_plmn.c.o
[ 56%] Building C object CMakeFiles/nvram.dir/home/n2/5Gnr/openairinterface5g/openair3/NAS/UE/API/USIM/usim_api.c.o
[ 56%] Building C object CMakeFiles/nvram.dir/home/n2/5Gnr/openairinterface5g/openair3/NAS/TOOLS/fs.c.o
[ 68%] Building C object CMakeFiles/nvram.dir/home/n2/5Gnr/openairinterface5g/openair3/NAS/TOOLS/display.c.o
[ 68%] Building C object CMakeFiles/nvram.dir/home/n2/5Gnr/openairinterface5g/openair3/NAS/UE/API/USIM/aka_functions.c.o
[ 75%] Building C object CMakeFiles/nvram.dir/home/n2/5Gnr/openairinterface5g/openair3/NAS/COMMON/UTIL/memory.c.o
[ 81%] Building C object CMakeFiles/nvram.dir/home/n2/5Gnr/openairinterface5g/openair3/NAS/COMMON/UTIL/TLVEncoder.c.o
[ 87%] Building C object CMakeFiles/nvram.dir/home/n2/5Gnr/openairinterface5g/openair3/NAS/COMMON/UTIL/OctetString.c.o
[ 93%] Building C object CMakeFiles/nvram.dir/home/n2/5Gnr/openairinterface5g/common/utils/utils.c.o
[100%] Linking C executable nvram
[100%] Built target nvram
