Built target generate_T
Scanning dependencies of target oai_eth_transpro
Building C object CMakeFiles/oai_eth_transpro.dir/home/n2/5Gnr/openairinterface5g/targets/ARCH/ETHERNET/USERSPACE/LIB/eth_raw.c.o
Building C object CMakeFiles/oai_eth_transpro.dir/home/n2/5Gnr/openairinterface5g/targets/ARCH/ETHERNET/USERSPACE/LIB/ethernet_lib.c.o
Building C object CMakeFiles/oai_eth_transpro.dir/home/n2/5Gnr/openairinterface5g/targets/ARCH/ETHERNET/USERSPACE/LIB/eth_udp.c.o
Linking C shared module liboai_eth_transpro.so
Built target oai_eth_transpro
