Built target generate_T
Scanning dependencies of target params_libconfig
Building C object CMakeFiles/params_libconfig.dir/home/n2/5Gnr/openairinterface5g/common/config/libconfig/config_libconfig.c.o
Linking C shared module libparams_libconfig.so
Built target params_libconfig
