Built target generate_T
Built target SIMU_COMMON
Scanning dependencies of target rfsimulator
Building C object CMakeFiles/rfsimulator.dir/home/n2/5Gnr/openairinterface5g/targets/ARCH/rfsimulator/simulator.c.o
Building C object CMakeFiles/rfsimulator.dir/home/n2/5Gnr/openairinterface5g/targets/ARCH/rfsimulator/apply_channelmod.c.o
Building C object CMakeFiles/rfsimulator.dir/home/n2/5Gnr/openairinterface5g/openair1/PHY/TOOLS/signal_energy.c.o
Building C object CMakeFiles/rfsimulator.dir/home/n2/5Gnr/openairinterface5g/targets/ARCH/rfsimulator/new_channel_sim.c.o
Linking C shared module librfsimulator.so
Built target rfsimulator
