Built target generate_T
Scanning dependencies of target tcp_bridge_oai
Building C object CMakeFiles/tcp_bridge_oai.dir/home/n2/5Gnr/openairinterface5g/targets/ARCH/tcp_bridge/tcp_bridge_oai.c.o
Linking C shared module libtcp_bridge_oai.so
Built target tcp_bridge_oai
